ADD - 2022-07-23 17:53:48.110419 => item - Keycron K2
DEL - 2022-07-23 17:54:32.878874 => Item - Keycron K2
SUB - 2022-07-23 17:55:55.579750 => Sale - Keycron K2 - 1
RES - 2022-07-23 17:56:02.404101 => Restock - Keycron K2 - 10
DEL - 2022-07-23 17:56:21.189400 => Item - Keycron K2
ADD - 2022-07-23 17:56:58.492237 => item - Keycron K2
ADD - 2022-07-23 17:57:54.084929 => item - Logitech Mx Masters Vertical
ADD - 2022-07-23 17:58:37.547499 => item - Logitech Mx Anywhere 3
SUB - 2022-07-23 17:58:57.087691 => Sale - Logitech Mx Anywhere 3 - 1
SUB - 2022-07-23 17:59:01.292559 => Sale - Logitech Mx Anywhere 3 - 3
SUB - 2022-07-23 18:00:12.688623 => Sale - Keycron K2 - 1
SUB - 2022-07-23 18:00:57.344187 => Sale - Keycron K2 - 1
RES - 2022-07-23 18:02:24.426892 => Restock - Keycron K2 - 3
